[gd_scene load_steps=3 format=3 uid="uid://4yt57fmpisle"]

[ext_resource type="Texture2D" uid="uid://dfhruh20uqd7x" path="res://icon.svg" id="1_fuexl"]
[ext_resource type="Script" path="res://FirstScript/sprite.gd" id="2_5ilvo"]

[node name="Sprite2D" type="Sprite2D"]
position = Vector2(570, 322)
texture = ExtResource("1_fuexl")
script = ExtResource("2_5ilvo")
